%YAML 1.1
%TAG !u! tag:unity3d.com,2011:
--- !u!1045 &1
EditorBuildSettings:
  m_ObjectHideFlags: 0
  serializedVersion: 2
  m_Scenes:
  - enabled: 1
    path: Assets/Scenes/Main.unity
    guid: 8aa50ac2d1ebb6744905da41e426654b
  - enabled: 1
    path: Assets/Scenes/EndGame.unity
    guid: 248ba332deb9bd8428f855a0a45006cd
